%!tikz editor 1.0
%!tikz source begin
\begin{tikzpicture}[scale=2]
	\tikzstyle{arrow} = [->, bend left=15];
	\tikzstyle{carrow} = [->, bend left=15, thick];
	\tikzstyle{rarrow} = [->, bend right=15];
	\tikzstyle{dasharrow} = [->, dashed];
	\tikzstyle{n} = [draw, circle, color=black];
	\tikzstyle{c} = [draw, circle, color=black, fill=gray!20];
	\node [c] (A) at (-2, 1) {A};
	\node [c] (B) at (0, 1) {B};
	\node [n] (C) at (-1, 2) {C};
	\node [n] (D) at (1, 2) {D};
	\node [n] (E) at (1, 0) {E};
	\node [c] (F) at (-1, -.4) {F};
	\draw [carrow] (A) to node[above]{.9} (B) ;	
	\draw [carrow] (B) to node[below]{.9} (A) ;	
	\draw [arrow] (A) to node[below]{.7} (C) ;	
	\draw [rarrow] (E) to node[below]{.5} (B) ;	
	\draw [rarrow] (B) to node[below]{.7} (D) ;
	\draw [carrow] (F) to node[below]{.6} (A) ;
	\draw [carrow] (F) to node[below]{.6} (A) ;
	\draw [rarrow] (D) to node[below]{.5} (C) ;	
	\draw [carrow] (F) to node[below]{.7} (B) ;
	\draw [carrow] (B) to node[below]{.7} (F) ;
	\draw [carrow] (A) to node[below]{.6} (F) ;
	\draw [arrow] (E) to node[below]{.4} (F) ;
	
\end{tikzpicture}
%!tikz source end

